[{"ResponseUri":"https://reqres.in/api/users?page=2","ResponseStatus":"Completed","StatusCode":"OK","ResponseTime":"0.8526954","Content":"{\"page\":2,\"per_page\":3,\"total\":12,\"total_pages\":4,\"data\":[{\"id\":4,\"first_name\":\"Eve\",\"last_name\":\"Holt\",\"avatar\":\"https://s3.amazonaws.com/uifaces/faces/twitter/marcoramires/128.jpg\"},{\"id\":5,\"first_name\":\"Charles\",\"last_name\":\"Morris\",\"avatar\":\"https://s3.amazonaws.com/uifaces/faces/twitter/stephenmoon/128.jpg\"},{\"id\":6,\"first_name\":\"Tracey\",\"last_name\":\"Ramos\",\"avatar\":\"https://s3.amazonaws.com/uifaces/faces/twitter/bigmancho/128.jpg\"}]}"},{"ResponseUri":"https://reqres.in/api/users/2","ResponseStatus":"Completed","StatusCode":"OK","ResponseTime":"0.4117968","Content":"{\"data\":{\"id\":2,\"first_name\":\"Janet\",\"last_name\":\"Weaver\",\"avatar\":\"https://s3.amazonaws.com/uifaces/faces/twitter/josephstein/128.jpg\"}}"},{"ResponseUri":"https://reqres.in/api/users/23","ResponseStatus":"Completed","StatusCode":"NotFound","ResponseTime":"0.3896595","Content":"{}"},{"ResponseUri":"https://reqres.in/api/users","ResponseStatus":"Completed","StatusCode":"Created","ResponseTime":"3.6931659","Content":"{\"id\":\"560\",\"createdAt\":\"2019-02-05T05:53:57.979Z\"}"},{"ResponseUri":"https://reqres.in/api/users?page=2","ResponseStatus":"Completed","StatusCode":"Created","ResponseTime":"3.7386984","Content":"{\"id\":\"680\",\"createdAt\":\"2019-02-05T05:54:01.852Z\"}"}]